4.43791	0.988444	0.14285
7.43566	0.945778	0.1
10.3206	1.01689  	0.0857
12.9389	0.846222	0.1
17.6341	0.832	        0.0642
23.5629	0.988444	0.0785
29.2541	0.881778	0.0857
34.9432	0.967111	0.1072
45.4566	0.896   	0.0929
75.4289	0.903111	0.1071

